SplineFontDB: 3.2
FontName: Untitled4
FullName: Untitled4
FamilyName: Untitled4
Weight: Regular
Copyright: Copyright (c) 2020, ajego
UComments: "2020-4-6: Created with FontForge (http://fontforge.org)"
Version: 001.000
ItalicAngle: 0
UnderlinePosition: -100
UnderlineWidth: 50
Ascent: 800
Descent: 200
InvalidEm: 0
LayerCount: 2
Layer: 0 0 "Arri+AOgA-re" 1
Layer: 1 0 "Avant" 0
XUID: [1021 255 1971784212 10722]
StyleMap: 0x0000
FSType: 0
OS2Version: 0
OS2_WeightWidthSlopeOnly: 0
OS2_UseTypoMetrics: 1
CreationTime: 1586186050
ModificationTime: 1586243966
OS2TypoAscent: 0
OS2TypoAOffset: 1
OS2TypoDescent: 0
OS2TypoDOffset: 1
OS2TypoLinegap: 90
OS2WinAscent: 0
OS2WinAOffset: 1
OS2WinDescent: 0
OS2WinDOffset: 1
HheadAscent: 0
HheadAOffset: 1
HheadDescent: 0
HheadDOffset: 1
DEI: 91125
Encoding: TeX-Base-Encoding
UnicodeInterp: none
NameList: AGL For New Fonts
DisplaySize: -48
AntiAlias: 1
FitToEm: 0
WinInfo: 16 16 4
BeginChars: 256 8

StartChar: one
Encoding: 49 49 0
Width: 1000
VWidth: 0
Flags: H
LayerCount: 2
Fore
SplineSet
235.646484375 -154.114257812 m 4
 213.571289062 -132.0390625 215.859375 -83.1455078125 239.930664062 -62.53515625 c 4
 253.375 -51.0234375 259.924804688 -33.0439453125 259.924804688 -7.6484375 c 6
 259.924804688 30.1181640625 l 5
 198.321289062 30.1181640625 l 6
 150.474609375 30.1181640625 127.091796875 35.7587890625 93.6171875 55.376953125 c 4
 33.59375 90.552734375 0 150.627929688 0 222.790039062 c 4
 0 253.564453125 4.7744140625 291.408203125 10.6103515625 306.88671875 c 4
 24.259765625 343.091796875 74.810546875 395.4453125 110.321289062 410.154296875 c 4
 130.219726562 418.396484375 139.80859375 431.0625 144.30859375 455.046875 c 4
 148.204101562 475.8125 164.196289062 500.416992188 186.564453125 520.055664062 c 4
 220.12109375 549.518554688 226.846679688 551.432617188 286.104492188 548.385742188 c 4
 349.216796875 545.139648438 349.875976562 545.385742188 381.559570312 583.822265625 c 4
 469.74609375 690.80859375 658.919921875 699.743164062 763.543945312 601.86328125 c 4
 801.205078125 566.62890625 839.536132812 484.403320312 839.659179688 438.583984375 c 4
 839.734375 407.442382812 843.643554688 401.203125 866.638671875 395.431640625 c 4
 908.37109375 384.958007812 947.288085938 352.74609375 974.678710938 306.005859375 c 4
 1026.71386719 217.215820312 995.37890625 93.8037109375 909.704101562 50.095703125 c 4
 882.372070312 36.15234375 850.797851562 30.1181640625 805.165039062 30.1181640625 c 6
 739.786132812 30.1181640625 l 5
 739.786132812 -7.6484375 l 6
 739.786132812 -33.0439453125 746.334960938 -51.0234375 759.780273438 -62.53515625 c 4
 783.8515625 -83.1455078125 786.138671875 -132.0390625 764.064453125 -154.114257812 c 4
 743.860351562 -174.318359375 695.723632812 -174.318359375 675.518554688 -154.114257812 c 4
 653.444335938 -132.0390625 655.731445312 -83.1455078125 679.803710938 -62.53515625 c 4
 693.248046875 -51.0234375 699.796875 -33.0439453125 699.796875 -7.6484375 c 6
 699.796875 30.1181640625 l 5
 609.823242188 30.1181640625 l 5
 519.849609375 30.1181640625 l 5
 519.849609375 -7.6484375 l 6
 519.849609375 -33.0439453125 526.399414062 -51.0234375 539.84375 -62.53515625 c 4
 563.915039062 -83.1455078125 566.203125 -132.0390625 544.127929688 -154.114257812 c 4
 523.923828125 -174.318359375 475.787109375 -174.318359375 455.58203125 -154.114257812 c 4
 433.5078125 -132.0390625 435.794921875 -83.1455078125 459.8671875 -62.53515625 c 4
 473.311523438 -51.0234375 479.861328125 -33.0439453125 479.861328125 -7.6484375 c 6
 479.861328125 30.1181640625 l 5
 389.88671875 30.1181640625 l 5
 299.913085938 30.1181640625 l 5
 299.913085938 -7.6484375 l 6
 299.913085938 -33.0439453125 306.462890625 -51.0234375 319.907226562 -62.53515625 c 4
 343.978515625 -83.1455078125 346.266601562 -132.0390625 324.192382812 -154.114257812 c 4
 315.551757812 -162.754882812 295.62890625 -169.82421875 279.918945312 -169.82421875 c 4
 264.208984375 -169.82421875 244.286132812 -162.754882812 235.646484375 -154.114257812 c 4
299.913085938 109.178710938 m 4
 299.913085938 188.033203125 300.026367188 188.3828125 344.900390625 243.465820312 c 4
 369.642578125 273.83984375 389.88671875 303.494140625 389.88671875 309.362304688 c 4
 389.88671875 354.427734375 283.330078125 233.829101562 269.134765625 172.69921875 c 4
 264.33203125 152.012695312 260.294921875 111.469726562 260.163085938 82.603515625 c 4
 259.936523438 36.703125 262.434570312 30.1181640625 279.918945312 30.1181640625 c 4
 298.227539062 30.1181640625 299.913085938 36.783203125 299.913085938 109.178710938 c 4
517.625 172.577148438 m 4
 515.3125 291.309570312 512.353515625 315.036132812 499.85546875 315.036132812 c 4
 487.357421875 315.036132812 484.397460938 291.309570312 482.0859375 172.577148438 c 4
 479.399414062 34.6142578125 479.961914062 30.1181640625 499.85546875 30.1181640625 c 4
 519.75 30.1181640625 520.310546875 34.6142578125 517.625 172.577148438 c 4
739.73046875 82.603515625 m 4
 739.696289062 111.469726562 734.721679688 153.083007812 728.66796875 175.076171875 c 4
 710.763671875 240.123046875 609.823242188 354.1796875 609.823242188 309.362304688 c 4
 609.823242188 303.494140625 630.067382812 273.83984375 654.810546875 243.465820312 c 4
 699.680664062 188.3828125 699.796875 188.033203125 699.796875 109.178710938 c 4
 699.796875 36.783203125 701.482421875 30.1181640625 719.791992188 30.1181640625 c 4
 737.25390625 30.1181640625 739.778320312 36.7646484375 739.73046875 82.603515625 c 4
EndSplineSet
Validated: 524321
EndChar

StartChar: two
Encoding: 50 50 1
Width: 1000
VWidth: 0
Flags: H
LayerCount: 2
Fore
SplineSet
95.5947265625 49.4970703125 m 4
 33.791015625 86.908203125 0.0703125 147.833984375 0 222.217773438 c 4
 -0.041015625 265.899414062 7.3173828125 294.926757812 26.9033203125 328.348632812 c 4
 41.7314453125 353.650390625 70.4775390625 383.432617188 90.783203125 394.53125 c 4
 112.520507812 406.411132812 136.83984375 433.573242188 149.921875 460.58203125 c 4
 180.446289062 523.602539062 233.015625 556.48046875 303.254882812 556.48046875 c 4
 354.100585938 556.48046875 362.034179688 560.174804688 395.739257812 599.552734375 c 4
 416.016601562 623.241210938 456.241210938 653.733398438 485.126953125 667.311523438 c 4
 527.981445312 687.455078125 552.443359375 691.250976562 618.044921875 687.938476562 c 4
 685.765625 684.516601562 705.94921875 678.603515625 746.048828125 650.419921875 c 4
 814.029296875 602.641601562 857.377929688 536.26953125 863.721679688 470.247070312 c 4
 868.380859375 421.763671875 873.180664062 413.50390625 907.41796875 395.065429688 c 4
 995.6015625 347.576171875 1027.8359375 211.883789062 973.116210938 118.510742188 c 4
 958.206054688 93.0693359375 926.900390625 62 902.168945312 48.1005859375 c 4
 858.857421875 23.7578125 850.1796875 23.224609375 498.359375 23.2802734375 c 4
 140.4453125 23.322265625 138.616210938 23.4482421875 95.5947265625 49.4970703125 c 4
591.69921875 276.131835938 m 4
 663.399414062 348.018554688 722.0625 415.508789062 722.0625 426.110351562 c 4
 722.0625 467.754882812 678.791015625 440.6484375 566.385742188 328.592773438 c 6
 449.23046875 211.799804688 l 5
 400.025390625 261.935546875 l 6
 351.197265625 311.6875 317.638671875 324.859375 307.673828125 298.18359375 c 4
 302.115234375 283.3046875 430.3359375 145.427734375 449.731445312 145.427734375 c 4
 456.114257812 145.427734375 519.999023438 204.244140625 591.69921875 276.131835938 c 4
EndSplineSet
EndChar

StartChar: three
Encoding: 51 51 2
Width: 1000
VWidth: 0
Flags: H
LayerCount: 2
Fore
SplineSet
135.723632812 38.95703125 m 6
 33.5029296875 101.282226562 -7.24609375 184.387695312 1.0439453125 313.627929688 c 4
 12.552734375 493.051757812 131.590820312 590.212890625 320.694335938 574.530273438 c 4
 449.766601562 563.827148438 509.66796875 507.298828125 573.924804688 335.55859375 c 4
 626.993164062 193.71875 643.6328125 174.06640625 710.655273438 174.06640625 c 4
 780.026367188 174.06640625 825.390625 219.819335938 825.390625 289.78515625 c 4
 825.390625 371.764648438 775.560546875 411.659179688 687.857421875 399.895507812 c 4
 619.658203125 390.748046875 612.7421875 394.639648438 577.650390625 461.967773438 c 4
 541.0703125 532.1484375 541.04296875 534.3203125 576.462890625 556.440429688 c 4
 634.255859375 592.533203125 788.299804688 583.912109375 859.318359375 540.612304688 c 4
 1111.29199219 386.981445312 1002.875 0.80078125 707.702148438 0.560546875 c 4
 575.985351562 0.490234375 500.623046875 59.5703125 436.709960938 213.137695312 c 4
 363.442382812 389.180664062 350.704101562 405.502929688 286.584960938 405.502929688 c 4
 215.170898438 405.502929688 169.651367188 360.45703125 169.651367188 289.78515625 c 4
 169.651367188 209.025390625 219.6484375 167.932617188 304.123046875 179.262695312 c 4
 368.603515625 187.912109375 376.817382812 183.155273438 413.748046875 115.73046875 c 4
 453.669921875 42.84765625 453.669921875 42.84765625 407.1875 21.66796875 c 4
 333.991210938 -11.6826171875 205.342773438 -3.48828125 135.7265625 38.95703125 c 6
 135.723632812 38.95703125 l 6
EndSplineSet
Validated: 524321
EndChar

StartChar: four
Encoding: 52 52 3
Width: 1000
VWidth: 0
Flags: H
LayerCount: 2
Fore
SplineSet
605.983398438 -177.383789062 m 4
 573.32421875 -142.620117188 577.747070312 -119.432617188 626.516601562 -69.7392578125 c 4
 668.265625 -27.201171875 669.735351562 -23.3828125 670.787109375 45.2373046875 c 4
 672.46484375 154.5625 729.767578125 215.172851562 831.452148438 215.172851562 c 4
 911.146484375 215.172851562 913.487304688 207.53125 852.66015625 145.939453125 c 6
 797.40625 89.990234375 l 5
 836.111328125 51.28515625 l 5
 874.81640625 12.5791015625 l 5
 930.766601562 67.833984375 l 6
 992.358398438 128.66015625 1000 126.319335938 1000 46.625 c 4
 1000 -55.05859375 939.388671875 -112.36328125 830.064453125 -114.0390625 c 4
 761.443359375 -115.090820312 757.625976562 -116.5625 715.086914062 -158.309570312 c 4
 665.104492188 -207.364257812 638.515625 -212.012695312 605.983398438 -177.383789062 c 4
0.001953125 6.8408203125 m 5
 0.001953125 48.5068359375 l 5
 64.3173828125 48.5068359375 l 5
 128.6328125 48.5068359375 l 5
 105.984375 72.6162109375 l 6
 84.0556640625 95.9580078125 83.3349609375 104.516601562 83.3349609375 341.6328125 c 4
 83.3349609375 667.634765625 31.7607421875 631.83984375 501.4609375 631.83984375 c 6
 871.369140625 631.83984375 l 5
 894.017578125 607.73046875 l 6
 915.126953125 585.260742188 916.666992188 573.329101562 916.666992188 432.287109375 c 6
 916.666992188 280.952148438 l 5
 877.604492188 287.286132812 l 5
 838.541992188 293.620117188 l 5
 835.6171875 421.063476562 l 5
 832.69140625 548.505859375 l 5
 499.6796875 548.505859375 l 5
 166.666992188 548.505859375 l 5
 166.666992188 340.172851562 l 5
 166.666992188 131.840820312 l 5
 384.3203125 131.840820312 l 5
 601.97265625 131.840820312 l 5
 593.135742188 92.77734375 l 6
 588.275390625 71.2939453125 586.98046875 42.9794921875 590.2578125 29.8583984375 c 4
 605.458007812 -30.984375 587.009765625 -34.826171875 279.634765625 -34.826171875 c 6
 0 -34.826171875 l 5
 0.001953125 6.8408203125 l 5
EndSplineSet
Validated: 524321
EndChar

StartChar: five
Encoding: 53 53 4
Width: 1000
VWidth: 0
Flags: H
LayerCount: 2
Fore
SplineSet
800 800 m 0
 910.3125 800 1000 710.3125 1000 600 c 0
 1000 489.6875 910.3125 400 800 400 c 0
 763.359375 400 728.90625 410.234375 699.375 427.5 c 0
 639.921875 462.1875 600 526.25 600 600 c 0
 600 601.015625 600 602.109375 600 603.125 c 0
 601.5625 712.03125 690.703125 800 800 800 c 0
561.25 583.125 m 2
 566.015625 516.484375 597.96875 457.421875 646.25 416.875 c 2
 439.375 313.125 l 2
 435.703125 380 404.453125 439.375 356.875 480.625 c 2
 561.25 583.125 l 2
200 500 m 0
 238.59375 500 274.375 489.0625 305 470 c 0
 361.796875 434.6875 400 371.796875 400 300 c 0
 400 230.546875 364.296875 169.609375 310.625 133.75 c 0
 278.828125 112.5 241.015625 100 200 100 c 0
 89.6875 100 0 189.6875 0 300 c 0
 0 410.3125 89.6875 500 200 500 c 0
439.375 286.875 m 2
 645.625 183.125 l 2
 597.421875 142.5 566.015625 83.515625 561.25 16.875 c 2
 357.5 118.75 l 2
 405 160.078125 435.703125 220.078125 439.375 286.875 c 2
800 200 m 0
 910.3125 200 1000 110.3125 1000 0 c 0
 1000 -110.3125 910.3125 -200 800 -200 c 0
 690.546875 -200 601.328125 -111.640625 600 -2.5 c 1
 597.5 -1.25 l 2
 598.359375 -1.171875 599.140625 -0.703125 600 -0.625 c 0
 600 -0.3125 600 -0.3125 600 0 c 0
 600 69.140625 635.390625 129.6875 688.75 165.625 c 0
 720.625 187.109375 758.75 200 800 200 c 0
EndSplineSet
Validated: 524289
EndChar

StartChar: six
Encoding: 54 54 5
Width: 1000
VWidth: 0
Flags: H
LayerCount: 2
Fore
SplineSet
351.60546875 -56.8056640625 m 2
 351.60546875 21.9521484375 342.9453125 91.7412109375 332.361328125 98.2822265625 c 0
 321.77734375 104.821289062 313.1171875 170.283203125 313.1171875 243.748046875 c 0
 313.1171875 385.103515625 301.9296875 400.897460938 245.763671875 338.833007812 c 0
 196.35546875 284.237304688 177.721679688 289.6015625 83.5888671875 385.515625 c 2
 -0 470.6875 l 1
 11.6240234375 500.98046875 l 2
 29.2099609375 546.80859375 68.943359375 537.583007812 130.440429688 473.393554688 c 2
 185.893554688 415.512695312 l 1
 245.610351562 473.393554688 l 1
 305.327148438 531.2734375 l 1
 364.895507812 531.2734375 l 1
 424.462890625 531.2734375 l 1
 436.14453125 500.833007812 l 2
 442.56640625 484.091796875 447.825195312 440.791992188 447.825195312 404.61328125 c 0
 447.825195312 368.43359375 456.485351562 338.833007812 467.069335938 338.833007812 c 0
 477.654296875 338.833007812 486.313476562 368.43359375 486.313476562 404.61328125 c 0
 486.313476562 440.791992188 491.572265625 484.091796875 497.994140625 500.833007812 c 2
 509.67578125 531.2734375 l 1
 569.243164062 531.2734375 l 1
 628.811523438 531.2734375 l 1
 688.658203125 473.266601562 l 1
 748.505859375 415.260742188 l 1
 794.231445312 463.932617188 l 1
 839.956054688 512.604492188 l 1
 765.416015625 588.939453125 l 2
 656.411132812 700.571289062 699.2109375 707.21484375 817.9765625 597.098632812 c 0
 948.432617188 476.14453125 947.235351562 484.03125 850.15625 385.115234375 c 0
 752.505859375 285.6171875 745.686523438 284.329101562 674.995117188 352.0546875 c 2
 621.021484375 403.765625 l 1
 621.021484375 256.970703125 l 2
 621.021484375 176.233398438 612.362304688 104.82421875 601.77734375 98.2822265625 c 0
 591.193359375 91.744140625 582.534179688 21.9521484375 582.534179688 -56.8056640625 c 2
 582.534179688 -200 l 1
 467.069335938 -200 l 1
 351.60546875 -200 l 1
 351.60546875 -56.8056640625 l 2
383.454101562 604.953125 m 1
 341.392578125 651.431640625 342.978515625 729.185546875 386.799804688 768.841796875 c 0
 463.090820312 837.883789062 582.536132812 784.818359375 582.536132812 681.881835938 c 0
 582.536132812 583.327148438 449.537109375 531.934570312 383.456054688 604.953125 c 1
 383.454101562 604.953125 l 1
EndSplineSet
Validated: 524321
EndChar

StartChar: seven
Encoding: 55 55 6
Width: 1000
VWidth: 0
Flags: H
LayerCount: 2
Fore
SplineSet
23.529296875 -141.430664062 m 4
 7.30078125 -125.202148438 0 -25.7666015625 0 179.05859375 c 4
 0 441.848632812 4.1279296875 479.75390625 35.8583984375 508.470703125 c 4
 66.9384765625 536.598632812 129.229492188 540.921875 503.407226562 540.921875 c 4
 896.720703125 540.921875 937.983398438 537.735351562 967.549804688 505.063476562 c 4
 994.703125 475.05859375 1000 421.291015625 1000 175.65234375 c 4
 1000 -26.5234375 992.677734375 -125.2265625 976.470703125 -141.430664062 c 4
 943.0703125 -174.831054688 56.9296875 -174.831054688 23.529296875 -141.430664062 c 4
137.255859375 628.466796875 m 6
 137.255859375 705.219726562 176.598632812 737 271.6171875 737 c 4
 371.5625 737 392.157226562 719.891601562 392.157226562 636.86328125 c 6
 392.157226562 560.529296875 l 5
 264.706054688 560.529296875 l 5
 137.255859375 560.529296875 l 5
 137.255859375 628.466796875 l 6
607.84375 636.86328125 m 6
 607.84375 719.891601562 628.4375 737 728.3828125 737 c 4
 823.40234375 737 862.745117188 705.219726562 862.745117188 628.466796875 c 6
 862.745117188 560.529296875 l 5
 735.294921875 560.529296875 l 5
 607.84375 560.529296875 l 5
 607.84375 636.86328125 l 6
EndSplineSet
Validated: 524321
EndChar

StartChar: eight
Encoding: 56 56 7
Width: 1000
VWidth: 0
Flags: H
LayerCount: 2
Fore
SplineSet
903.211914062 -148.517578125 m 2
 844.877929688 -89.568359375 l 1
 807.002929688 -108.890625 l 2
 610.189453125 -209.296875 419.961914062 48.4033203125 572.171875 209.233398438 c 0
 728.536132812 374.453125 1005.7265625 180.685546875 898.119140625 -18.6171875 c 2
 879.291015625 -53.48828125 l 1
 938.744140625 -113.893554688 l 2
 995.727539062 -171.790039062 997.435546875 -174.987304688 979.87109375 -190.8828125 c 0
 962.512695312 -206.591796875 958.46875 -204.357421875 903.211914062 -148.517578125 c 2
778.905273438 -72.4150390625 m 0
 835.180664062 -57.4736328125 882.953125 39.4736328125 867.594726562 107.569335938 c 0
 833.719726562 257.764648438 603.31640625 257.764648438 569.44140625 107.569335938 c 0
 541.706054688 -15.4052734375 648.383789062 -107.069335938 778.905273438 -72.4150390625 c 0
93.46484375 56.68359375 m 1
 12.9482421875 104.942382812 -22.234375 214.944335938 14.62890625 303.170898438 c 0
 27.4736328125 333.9140625 92.34765625 399.836914062 109.756835938 399.836914062 c 0
 114.30078125 399.836914062 125.703125 419.956054688 135.09375 444.544921875 c 0
 163.740234375 519.555664062 246.635742188 555.591796875 324.971679688 527.08984375 c 0
 340.678710938 521.375 349.58203125 527.052734375 367.017578125 553.893554688 c 0
 485.189453125 735.83203125 801.109375 651.8515625 843.235351562 427.301757812 c 0
 848.381835938 399.870117188 857.026367188 388.568359375 880.208984375 378.965820312 c 0
 986.095703125 335.106445312 1031.80664062 212.12890625 976.14453125 120.8671875 c 2
 954.875976562 85.99609375 l 1
 942.758789062 133.685546875 l 2
 878.564453125 386.32421875 493.053710938 342.35546875 487.116210938 81.716796875 c 2
 485.963867188 31.19921875 l 1
 310.817382812 31.2744140625 l 2
 141.08203125 31.349609375 134.365234375 32.1513671875 93.462890625 56.6650390625 c 1
 93.46484375 56.68359375 l 1
EndSplineSet
Validated: 524321
EndChar
EndChars
EndSplineFont
