<?xml version="1.0" encoding="UTF-8" standalone="no"?>
<svg
   xmlns:dc="http://purl.org/dc/elements/1.1/"
   xmlns:cc="http://creativecommons.org/ns#"
   xmlns:rdf="http://www.w3.org/1999/02/22-rdf-syntax-ns#"
   xmlns:svg="http://www.w3.org/2000/svg"
   xmlns="http://www.w3.org/2000/svg"
   xmlns:sodipodi="http://sodipodi.sourceforge.net/DTD/sodipodi-0.dtd"
   xmlns:inkscape="http://www.inkscape.org/namespaces/inkscape"
   sodipodi:docname="03-devops-tools.svg"
   inkscape:version="1.0 (4035a4fb49, 2020-05-01)"
   id="svg41"
   version="1.1"
   viewBox="0 0 304.28387 153.15457"
   height="153.15457mm"
   width="304.28387mm">
  <defs
     id="defs35" />
  <sodipodi:namedview
     inkscape:window-maximized="1"
     inkscape:window-y="-8"
     inkscape:window-x="1358"
     inkscape:window-height="987"
     inkscape:window-width="1680"
     showgrid="false"
     inkscape:document-rotation="0"
     inkscape:current-layer="layer1"
     inkscape:document-units="mm"
     inkscape:cy="580.85453"
     inkscape:cx="540.73895"
     inkscape:zoom="0.35"
     inkscape:pageshadow="2"
     inkscape:pageopacity="0.0"
     borderopacity="1.0"
     bordercolor="#666666"
     pagecolor="#ffffff"
     id="base" />
  <metadata
     id="metadata38">
    <rdf:RDF>
      <cc:Work
         rdf:about="">
        <dc:format>image/svg+xml</dc:format>
        <dc:type
           rdf:resource="http://purl.org/dc/dcmitype/StillImage" />
        <dc:title></dc:title>
      </cc:Work>
    </rdf:RDF>
  </metadata>
  <g
     transform="translate(37.237181,5.517762)"
     id="layer1"
     inkscape:groupmode="layer"
     inkscape:label="Calque 1">
    <path
       style="fill:#000000;stroke-width:0.169333"
       d="M 31.744097,147.41358 C 17.914358,146.15771 5.0887071,141.35962 -5.7481629,133.38766 -22.142573,121.3274 -32.868413,103.90744 -36.208743,83.916297 c -2.872,-17.188331 0.33085,-35.51935 8.86115,-50.715331 4.79274,-8.53785 11.51602,-16.33044 19.6838911,-22.81452 7.47870999,-5.9369904 17.02062,-10.78537036 26.2148689,-13.3201405 6.534661,-1.80155 12.121391,-2.54067 19.219331,-2.54269 7.213489,-0.002 12.836149,0.71703 19.812,2.53377 2.5224,0.6569101 7.345961,2.24980994 8.803081,2.90707014 0.51347,0.2316099 1.56839,0.6806399 2.34426,0.99783 1.94873,0.79667996 6.3261,3.03130986 8.66466,4.42328026 12.00888,7.1479701 25.140611,18.9173701 36.215501,32.4583401 1.17616,1.438079 2.18216,2.639079 2.23551,2.668879 0.0534,0.0298 1.22749,-1.317419 2.60919,-2.993819 12.60808,-15.297229 24.78549,-26.67848 35.2276,-32.9244401 4.35439,-2.6045803 5.93756,-3.2645504 15.26401,-6.3630305 9.58439,-3.1841799 21.10662,-4.4373999 31.10972,-3.3836699 8.74278,0.9209699 17.36974,3.4612201 25.39238,7.47691 3.03577,1.51954 4.48823,2.3614904 7.56342,4.3842104 17.93439,11.7965301 29.845,29.9272511 33.62595,51.1864691 0.44733,2.51524 0.19228,3.705722 -1.07465,5.015852 -1.68373,1.741149 -4.49377,1.83226 -6.28256,0.203679 -0.74533,-0.678569 -1.18867,-1.593229 -1.46151,-3.01533 -1.60742,-8.378269 -3.07771,-12.91963 -6.26901,-19.363319 -2.39263,-4.831112 -4.55245,-8.222142 -7.987,-12.540041 -2.03952,-2.56409 -7.46448,-7.94844 -10.21255,-10.13612 -10.01116,-7.96963 -21.287,-12.6335401 -34.29,-14.1830003 -3.69338,-0.4401101 -11.98328,-0.2030802 -16.42533,0.4696399 -5.08154,0.7695603 -11.44931,2.5325803 -15.30305,4.2368803 -0.50073,0.22145 -1.0488,0.40264 -1.21793,0.40264 -0.5996,0 -2.81476,0.89897 -5.15369,2.0915101 -10.47282,5.33972 -23.90175,17.71141 -37.43141,34.484491 -6.99577,8.672819 -26.600281,31.90086 -36.301111,43.010669 -14.06688,16.110004 -19.89147,21.435384 -28.314801,25.888024 -17.939401,9.48291 -39.85609,5.99109 -54.5964799,-8.69843 -3.40349201,-3.39174 -5.837891,-6.576592 -8.17603,-10.696402 -5.732291,-10.100362 -7.6224611,-22.63373 -5.167342,-34.263861 1.825882,-8.649362 5.880201,-16.51835 11.914151,-23.124052 2.50467,-2.741999 6.970839,-6.502138 8.9417499,-7.528208 3.154651,-1.642332 7.055911,1.477989 6.293371,5.03359 -0.27899,1.300869 -0.992521,2.272408 -2.480411,3.377308 -5.7790179,4.291491 -9.7033389,8.948052 -12.6789389,15.044692 -2.78783001,5.71195 -4.0206,11.077808 -4.02649,17.526 -0.006,6.332228 1.27487899,11.906211 4.02672,17.526008 5.611091,11.458935 15.8563599,19.179745 28.4570199,21.445125 1.929601,0.34691 2.723891,0.39512 6.434669,0.39057 4.51366,-0.006 5.69273,-0.13847 9.059331,-1.02144 6.878921,-1.80417 13.525399,-5.8767 20.514001,-12.569682 4.84341,-4.638532 24.52708,-26.636252 24.3088,-27.166602 -0.25376,-0.61655 -5.9975,-6.71763 -11.53181,-12.249221 -7.59714,-7.593428 -13.522,-12.98158 -18.021982,-16.389448 -7.537458,-5.708192 -13.969,-8.627242 -20.760439,-9.422442 -0.974111,-0.114049 -3.253549,-0.172749 -5.418669,-0.139539 -3.573002,0.0548 -3.767511,0.0411 -4.426122,-0.311401 -0.915861,-0.490228 -1.818809,-1.514999 -2.188991,-2.4843 -0.627758,-1.643758 0.0155,-4.039849 1.390381,-5.178978 1.16536,-0.965541 2.02044,-1.111581 6.482831,-1.107242 2.22604,0.0021 4.68811,0.0983 5.588,0.218271 9.033571,1.20395 16.99822,4.875681 25.887391,11.93418 6.15255,4.885459 16.33183,14.57321 24.15061,22.984441 1.76954,1.903619 3.61972,3.881401 4.11152,4.395078 l 0.89418,0.933961 0.51303,-0.592669 c 0.40436,-0.467119 8.293691,-10.160741 11.125651,-13.670061 l 0.57785,-0.716071 -0.90204,-1.146598 c -4.04737,-5.14477 -8.26418,-9.872771 -13.263141,-14.871001 -7.06996,-7.06891 -12.5228,-11.64006 -19.22838,-16.11929 -5.91115,-3.94855 -10.07087,-6.0681001 -16.256002,-8.2831001 -12.413429,-4.4454704 -25.608928,-5.1289503 -38.164,-1.97676 -11.159918,2.8019 -21.40966991,8.6106201 -29.9710899,16.9851291 -8.2001601,8.021151 -13.5763801,16.51563 -17.0431801,26.928421 -6.31126,18.956301 -4.06614,39.794741 6.10093,56.626624 6.69878,11.09004 16.2714801,19.92701 27.8540021,25.71323 6.5985279,3.29639 13.6388899,5.38313 21.6746689,6.42431 2.479299,0.32123 10.97869,0.26376 14.275631,-0.0965 6.01622,-0.65746 12.028329,-2.15815 17.396269,-4.34229 0.911961,-0.37107 1.816961,-0.67536 2.011101,-0.67622 0.56766,-0.002 3.82917,-1.39999 5.72086,-2.45127 10.81652,-6.01112 23.96467,-18.33398 37.221541,-34.885172 4.24884,-5.304692 18.17933,-21.918351 27.75812,-33.104672 15.80723,-18.46004 22.49763,-25.503809 28.67501,-30.189631 7.13948,-5.4156 14.5925,-8.588449 22.8128,-9.711729 2.9481,-0.402839 8.98676,-0.406159 11.83867,-0.007 13.10622,1.836682 24.20412,8.347231 32.11101,18.837802 5.41552,7.185088 8.76271,15.977319 9.57355,25.147201 0.24476,2.76823 0.11184,8.674399 -0.24956,11.08859 -1.01658,6.790658 -3.11306,12.742809 -6.47009,18.369309 -7.48917,12.552132 -19.92167,20.892532 -34.44224,23.105752 -2.44225,0.37224 -8.07786,0.51856 -10.414,0.27038 -5.48962,-0.5832 -10.12065,-1.94686 -15.28935,-4.50214 -4.45781,-2.20382 -7.6184,-4.24116 -12.03738,-7.7594 -6.1851,-4.92436 -16.80343,-15.169443 -26.35681,-25.430302 -1.30069,-1.397 -2.40916,-2.56105 -2.46332,-2.586771 -0.0541,-0.02569 -1.85066,2.14597 -3.99229,4.826 -2.14163,2.680021 -5.08839,6.338301 -6.54836,8.129511 -1.45997,1.791219 -2.65449,3.30277 -2.65449,3.35901 0,0.14315 3.73878,4.407772 6.50569,7.420682 1.27372,1.38697 2.43801,2.75796 2.5873,3.04665 0.35064,0.67807 0.48017,2.53387 0.23904,3.42492 -0.25532,0.94348 -1.42222,2.22664 -2.46758,2.71343 -1.36477,0.63552 -3.04412,0.51181 -4.26898,-0.31448 -0.31439,-0.21209 -2.32966,-2.30966 -4.47836,-4.66128 -2.14871,-2.35162 -3.93464,-4.27567 -3.96873,-4.27567 -0.0341,0 -1.18561,1.34502 -2.55894,2.98893 -7.67888,9.19186 -16.634111,18.33278 -23.339441,23.8234 -2.86605,2.34684 -6.79965,5.2403 -9.27466,6.82219 -2.80301,1.79153 -7.6824,4.24056 -9.69068,4.86388 -0.8382,0.26015 -2.67257,0.88219 -4.07638,1.38231 -5.018532,1.7879 -9.320861,2.9429 -13.788282,3.70159 -5.97531,1.01478 -13.604009,1.36089 -19.06507,0.86498 z M 196.73884,110.40719 c 7.33144,-0.79861 14.35694,-3.72606 20.10869,-8.37908 0.84207,-0.68121 2.42023,-2.154242 3.50701,-3.273412 3.15497,-3.24897 5.22894,-6.231622 7.25646,-10.435732 4.45532,-9.238239 5.11551,-20.05765 1.82888,-29.972 -2.77593,-8.37379 -8.25195,-15.550859 -15.59512,-20.439581 -2.03124,-1.352288 -5.77889,-3.244509 -8.12927,-4.104529 -6.94467,-2.541111 -14.89527,-2.976779 -21.89325,-1.199711 -5.30152,1.34628 -10.7433,4.228902 -16.08841,8.522341 -4.65162,3.736411 -17.06626,16.919421 -27.90161,29.628541 l -1.31626,1.543889 2.16292,2.336681 c 6.27861,6.78294 13.90233,14.403941 20.28572,20.278441 7.95193,7.317992 15.1101,11.974012 21.77215,14.161632 1.76826,0.58065 4.6728,1.22912 6.24842,1.39503 1.35775,0.14296 6.22777,0.1037 7.75367,-0.0625 z m -8.85434,37.15751 c -7.31054,-0.58376 -14.09392,-2.01585 -20.25814,-4.27687 -6.54299,-2.39993 -9.80416,-3.86084 -14.20119,-6.36173 -6.47934,-3.68523 -15.72773,-10.25519 -16.78693,-11.92527 -2.22677,-3.51101 0.93934,-8.10424 4.76887,-6.91843 0.49123,0.15211 1.85976,1.05992 3.81,2.52735 8.13474,6.1209 14.73521,9.95616 22.17806,12.88681 6.43202,2.53263 10.7717,3.69285 17.35666,4.64036 1.71076,0.24616 3.20452,0.30355 7.78934,0.29926 6.07053,-0.006 7.67185,-0.13966 12.2566,-1.02556 17.20379,-3.32424 32.62189,-13.65661 42.55443,-28.51765 5.17919,-7.74905 8.67405,-16.591173 10.38894,-26.284223 0.37799,-2.136449 0.63323,-3.12221 0.96737,-3.736181 1.06252,-1.952189 3.13598,-2.74293 5.41655,-2.065679 1.61158,0.478589 2.92479,2.45114 2.92164,4.38848 -0.004,2.152219 -1.77075,9.85171 -3.31888,14.459681 -5.84356,17.393162 -17.48976,32.023092 -32.91732,41.350662 -2.60151,1.57289 -7.86237,4.20623 -10.49867,5.25515 -6.49801,2.58542 -12.45302,4.09201 -19.72733,4.99093 -2.1101,0.26075 -10.70207,0.47245 -12.7,0.31291 z"
       id="path127" />
  </g>
</svg>
