<?xml version="1.0" encoding="UTF-8" standalone="no"?>
<svg
   xmlns:dc="http://purl.org/dc/elements/1.1/"
   xmlns:cc="http://creativecommons.org/ns#"
   xmlns:rdf="http://www.w3.org/1999/02/22-rdf-syntax-ns#"
   xmlns:svg="http://www.w3.org/2000/svg"
   xmlns="http://www.w3.org/2000/svg"
   xmlns:sodipodi="http://sodipodi.sourceforge.net/DTD/sodipodi-0.dtd"
   xmlns:inkscape="http://www.inkscape.org/namespaces/inkscape"
   sodipodi:docname="09-intelligent-observability.svg"
   inkscape:version="1.0 (4035a4fb49, 2020-05-01)"
   id="svg189"
   version="1.1"
   viewBox="0 0 183.76298 182.99521"
   height="182.99521mm"
   width="183.76299mm">
  <defs
     id="defs183" />
  <sodipodi:namedview
     inkscape:window-maximized="0"
     inkscape:window-y="68"
     inkscape:window-x="1599"
     inkscape:window-height="1010"
     inkscape:window-width="1439"
     showgrid="false"
     inkscape:document-rotation="0"
     inkscape:current-layer="layer1"
     inkscape:document-units="mm"
     inkscape:cy="123.95536"
     inkscape:cx="694.01528"
     inkscape:zoom="0.35"
     inkscape:pageshadow="2"
     inkscape:pageopacity="0.0"
     borderopacity="1.0"
     bordercolor="#666666"
     pagecolor="#ffffff"
     id="base" />
  <metadata
     id="metadata186">
    <rdf:RDF>
      <cc:Work
         rdf:about="">
        <dc:format>image/svg+xml</dc:format>
        <dc:type
           rdf:resource="http://purl.org/dc/dcmitype/StillImage" />
        <dc:title></dc:title>
      </cc:Work>
    </rdf:RDF>
  </metadata>
  <g
     transform="translate(77.791543,-115.37014)"
     id="layer1"
     inkscape:groupmode="layer"
     inkscape:label="Calque 1">
    <path
       style="fill:#000000;stroke-width:0.169333"
       d="m 84.397636,298.28822 c -1.5215,-0.21231 -3.56563,-1.15319 -4.6362,-2.13396 -0.63055,-0.57766 -29.14351,-35.32104 -29.67563,-36.16011 -2.0262,-3.19499 -1.50957,-7.61868 1.19821,-10.25966 0.37746,-0.36815 0.68629,-0.7188 0.68629,-0.77921 0,-0.0604 -1.86614,-1.91855 -4.14698,-4.1292 l -4.14699,-4.01936 -1.50904,1.26611 c -7.181709,6.02558 -15.03264,10.39303 -23.894319,13.29236 -4.107691,1.34393 -10.9200607,2.9603 -14.0765817,3.33994 -1.266079,0.15227 -2.28957,-0.28408 -3.01488,-1.28534 -0.969251,-1.33801 -1.0272,-2.52492 -0.181268,-3.71291 0.568539,-0.79845 1.403649,-1.11127 3.81073,-1.42747 11.6954587,-1.53635 22.4064697,-6.10946 31.8705787,-13.60725 2.46935,-1.95631 7.90446,-7.44683 9.84264,-9.94297 1.73022,-2.22833 4.2796,-6.0086 5.48144,-8.128 3.69983,-6.52448 6.36251,-14.35748 7.42543,-21.844 0.19835,-1.397 0.50765,-2.87767 0.68733,-3.29038 0.53777,-1.23515 0.70001,-3.69106 0.609,-9.2188 -0.1238,-7.52062 -1.07908,-13.32674 -3.26624,-19.85199 -5.74253,-17.13251 -18.04652,-31.21771 -34.171121,-39.11794 -10.601698,-5.19429 -22.4917287,-7.50985 -34.227058,-6.66564 -26.768867,1.9257 -49.864625,19.81503 -58.257654,45.12475 -6.065921,18.29219 -4.135961,38.0246 5.333831,54.53449 7.501622,13.07853 19.229037,23.33493 33.080316,28.93092 6.574327,2.65607 12.837695,4.12516 20.258625,4.75173 1.8806503,0.15879 3.0510903,0.33575 3.3941813,0.51316 0.72671,0.3758 1.184629,1.19463 1.185399,2.11967 7.94e-4,1.07083 -0.464248,1.86528 -1.36657,2.3341 -0.680598,0.35362 -0.89729,0.38008 -2.358128,0.28792 C -33.876509,257.68193 -55.023,244.86404 -67.685136,224.04166 c -1.248548,-2.05319 -3.713697,-6.98142 -4.727885,-9.4518 -2.687578,-6.54648 -4.395376,-13.52918 -5.176847,-21.16667 -0.271508,-2.65351 -0.268187,-9.92318 0.0058,-12.61533 0.962854,-9.46208 3.169263,-17.4126 7.048947,-25.4 4.968193,-10.22847 12.32768,-19.09472 21.667426,-26.10361 10.016977,-7.51711 22.664788,-12.37418 35.644672,-13.68842 3.209499,-0.32497 10.6528393,-0.32817 13.8006593,-0.006 14.7912897,1.51418 27.7805797,6.86969 39.2006697,16.16253 2.42427,1.9727 7.52977,7.08528 9.67509,9.68853 6.99151,8.48384 12.06407,18.6226 14.56026,29.10223 0.58211,2.44385 1.38733,7.17008 1.70214,9.99067 0.25216,2.2592 0.26607,11.59648 0.0202,13.52798 -0.10504,0.82507 -0.10014,1.47297 0.0144,1.902 0.33505,1.25527 -0.81229,7.85917 -2.19513,12.6348 -2.7612,9.53578 -7.85357,18.92401 -14.18815,26.15712 -0.71027,0.81102 -1.2914,1.5357 -1.2914,1.61039 0,0.12292 4.6429,4.76718 7.2212,7.22332 l 1.04054,0.99123 1.07613,-0.91039 c 2.67416,-2.26231 6.16176,-2.77216 9.21639,-1.34735 0.56555,0.2638 2.05145,1.30673 3.302,2.31763 2.13672,1.72725 7.95722,6.46114 26.19229,21.30256 4.214404,3.43008 7.891584,6.5257 8.171524,6.87915 0.27994,0.35345 0.7481,1.15362 1.04035,1.77814 0.43972,0.93967 0.54551,1.40608 0.61343,2.70462 0.0977,1.86782 -0.11777,2.92452 -0.93288,4.57479 -0.53186,1.07682 -1.20792,1.80728 -7.384884,7.97906 -6.67155,6.66596 -6.8265,6.80682 -8.23876,7.49027 -1.78967,0.86607 -3.33609,1.15059 -4.99533,0.91904 z m 1.86267,-6.1608 c 0.57025,-0.15537 1.66069,-1.16453 6.89715,-6.38302 3.42091,-3.40916 6.33556,-6.44236 6.477,-6.74044 0.471764,-0.99414 0.34361,-1.69189 -0.46248,-2.51824 -0.39582,-0.40577 -5.25357,-4.41827 -10.795,-8.91669 -5.54144,-4.49841 -13.15771,-10.68752 -16.92505,-13.75358 -3.76735,-3.06606 -7.08205,-5.71633 -7.366,-5.88949 -0.69205,-0.42203 -1.57315,-0.39677 -2.29429,0.0658 -0.69441,0.44539 -6.30316,6.13419 -6.58272,6.67667 -0.31777,0.61663 -0.23027,1.64962 0.18549,2.18963 0.88081,1.14407 27.66008,33.8992 28.13831,34.41746 0.52373,0.56754 1.3121,1.01997 1.79626,1.0308 0.1397,0.003 0.5588,-0.0774 0.93133,-0.17886 z m -96.266001,-50.79935 c -19.386413,-1.48001 -36.396801,-12.86794 -44.871699,-30.04021 -2.726618,-5.52482 -4.242463,-10.49213 -5.193276,-17.018 -0.432632,-2.96936 -0.436101,-11.02554 -0.006,-13.97 0.632129,-4.32771 1.693712,-8.76169 2.290175,-9.56552 0.753673,-1.01571 1.928407,-1.12957 2.858645,-0.27707 0.809694,0.74203 0.811224,1.19267 0.01414,4.16992 -3.439185,12.84597 -1.406276,27.07325 5.504528,38.52333 7.280833,12.06317 19.447954,20.61683 33.226856,23.35898 3.898879,0.77591 6.5210903,0.98797 11.0026503,0.88977 7.731969,-0.16941 14.02261,-1.65067 20.7350097,-4.88246 7.83894,-3.77419 14.02511,-8.90649 19.067679,-15.81931 4.677214,-6.41196 7.747434,-13.86681 9.062314,-22.00431 0.51492,-3.18674 0.64136,-9.77979 0.25005,-13.03866 -1.73883,-14.48105 -9.057321,-26.9155 -20.751733,-35.25812 -6.627881,-4.72824 -14.4407087,-7.82918 -22.5213297,-8.9388 -2.748849,-0.37746 -7.911079,-0.50923 -10.6680003,-0.27229 -8.035139,0.69055 -15.171021,2.96341 -22.081953,7.03334 -6.785975,3.99635 -13.274797,10.49701 -17.366531,17.39824 -0.736203,1.24169 -1.506622,2.536 -1.71205,2.87624 -0.423288,0.70107 -0.93426,0.99005 -1.750594,0.99005 -1.097543,0 -2.102363,-1.29152 -1.806751,-2.32226 0.409676,-1.42846 3.7711,-6.74664 6.126936,-9.69356 3.807976,-4.76339 9.207474,-9.48863 14.313427,-12.52605 8.749435,-5.20484 18.083326,-7.79437 28.1119053,-7.79916 4.99428,-0.002 8.909111,0.46944 13.352941,1.60935 19.9645587,5.1212 35.3727227,20.89762 39.6891227,40.63768 2.70187,12.3564 1.19415,24.66327 -4.38994,35.83335 -2.68847,5.37783 -5.49286,9.32263 -9.726013,13.68108 -4.462939,4.59504 -9.111689,7.99396 -14.735831,10.77404 -4.858369,2.40156 -8.4479077,3.64289 -13.4641987,4.65619 -4.697251,0.94885 -10.21747,1.32578 -14.5604703,0.99422 z m -15.836424,-34.16705 c -0.780883,-0.35473 -1.651939,-1.17093 -2.075521,-1.9448 -0.245121,-0.44783 -0.291389,-1.01634 -0.291389,-3.58036 0,-2.94932 0.0136,-3.06993 0.419799,-3.72534 0.880433,-1.42055 2.042634,-2.10923 3.559535,-2.10923 1.501539,0 2.687889,0.70918 3.575904,2.13762 0.386041,0.62098 0.403429,0.78033 0.403429,3.69695 0,3.3626 -0.05002,3.56808 -1.130779,4.64529 -1.171646,1.16779 -3.023235,1.53299 -4.460978,0.87987 z m 2.149425,-3.35007 c 0.43801,-0.3964 0.461481,-3.84334 0.02942,-4.32076 -0.347739,-0.38425 -0.700934,-0.39367 -1.103421,-0.0294 -0.265115,0.23993 -0.309666,0.55489 -0.309666,2.18924 0,1.50967 0.05566,1.96465 0.266094,2.17509 0.342691,0.34269 0.728668,0.3378 1.117574,-0.0142 z m 6.371704,3.20124 c -0.239795,-0.25612 -0.486011,-0.63152 -0.547148,-0.83424 -0.15177,-0.50323 0.288933,-1.49046 0.820965,-1.83906 0.411998,-0.26995 0.437478,-0.36815 0.437478,-1.68596 0,-1.39001 -0.003,-1.4007 -0.499745,-1.60632 -1.111327,-0.46033 -1.385052,-1.87001 -0.529281,-2.72578 0.272235,-0.27223 0.615135,-0.49497 0.762,-0.49497 0.156298,0 0.267026,-0.14393 0.267026,-0.34708 0,-0.48957 0.451472,-1.30409 0.83729,-1.51057 0.884121,-0.47317 2.020281,-0.0199 2.39042,0.9536 0.0874,0.22995 0.158962,1.97523 0.158962,3.8784 0,2.88475 0.0402,3.46031 0.24171,3.46031 0.430279,0 0.943618,0.84859 0.943618,1.55987 0,0.51201 -0.115308,0.78283 -0.494969,1.16249 -0.489141,0.48914 -0.51774,0.49498 -2.423661,0.49498 -1.885426,0 -1.938451,-0.0105 -2.364665,-0.46567 z m 8.1280053,0 c -0.2398,-0.25612 -0.486019,-0.63152 -0.547151,-0.83424 -0.151767,-0.50323 0.288931,-1.49046 0.820963,-1.83906 0.411998,-0.26995 0.437478,-0.36815 0.437478,-1.68596 0,-1.39001 -0.003,-1.4007 -0.49974,-1.60632 -1.1113293,-0.46033 -1.3850593,-1.87001 -0.52928,-2.72578 0.272229,-0.27223 0.615129,-0.49497 0.762,-0.49497 0.156292,0 0.26702,-0.14393 0.26702,-0.34708 0,-0.48957 0.451472,-1.30409 0.83729,-1.51057 0.884121,-0.47317 2.020281,-0.0199 2.39042,0.9536 0.0874,0.22995 0.158962,1.97523 0.158962,3.8784 0,2.88475 0.0402,3.46031 0.24171,3.46031 0.430279,0 0.943618,0.84859 0.943618,1.55987 0,0.51201 -0.115308,0.78283 -0.494969,1.16249 -0.489141,0.48914 -0.51774,0.49498 -2.423661,0.49498 -1.885428,0 -1.938448,-0.0105 -2.36466,-0.46567 z m 9.766871,0.14883 c -0.780891,-0.35473 -1.651942,-1.17093 -2.075521,-1.9448 -0.245121,-0.44783 -0.291388,-1.01634 -0.291388,-3.58036 0,-2.94932 0.0136,-3.06993 0.419788,-3.72534 0.88044,-1.42055 2.042641,-2.10923 3.55954,-2.10923 1.501542,0 2.687891,0.70918 3.57591,2.13762 0.386032,0.62098 0.403421,0.78033 0.403421,3.69695 0,3.3626 -0.05,3.56808 -1.130779,4.64529 -1.171642,1.16779 -3.02323,1.53299 -4.460971,0.87987 z m 2.14942,-3.35007 c 0.43801,-0.3964 0.461481,-3.84334 0.0294,-4.32076 -0.347739,-0.38425 -0.700939,-0.39367 -1.103421,-0.0294 -0.26512,0.23993 -0.309668,0.55489 -0.309668,2.18924 0,1.50967 0.0557,1.96465 0.266099,2.17509 0.342689,0.34269 0.72866,0.3378 1.117569,-0.0142 z m 7.04904,3.20124 c -0.2398,-0.25612 -0.486011,-0.63152 -0.547151,-0.83424 -0.15177,-0.50323 0.28893,-1.49046 0.8209697,-1.83906 0.411991,-0.26995 0.437471,-0.36815 0.437471,-1.68596 0,-1.39001 -0.003,-1.4007 -0.4997397,-1.60632 -1.072801,-0.44437 -1.362059,-1.77732 -0.58587,-2.69976 0.24111,-0.28655 0.58401,-0.52099 0.7619997,-0.52099 0.213339,0 0.32361,-0.11827 0.32361,-0.34708 0,-0.48957 0.451479,-1.30409 0.837289,-1.51057 0.645901,-0.34568 1.438842,-0.20687 1.967371,0.3444 l 0.49734,0.51875 0.0515,3.71458 c 0.0418,3.01164 0.0955,3.71458 0.284048,3.71458 0.42222,0 0.934451,0.85506 0.934451,1.55987 0,0.51201 -0.115311,0.78283 -0.49497,1.16249 -0.48913,0.48914 -0.517731,0.49498 -2.423649,0.49498 -1.885432,0 -1.938462,-0.0105 -2.3646697,-0.46567 z M -25.499695,192.96744 c -0.589317,-0.12348 -1.665867,-0.96744 -2.196923,-1.72229 -0.505703,-0.7188 -0.513143,-0.76084 -0.568378,-3.21215 -0.06273,-2.78398 0.05107,-3.36761 0.843516,-4.32599 1.916829,-2.31819 5.866524,-1.73794 7.027447,1.03241 0.154911,0.36967 0.228338,1.31074 0.228338,2.92644 0,1.6157 -0.07343,2.55677 -0.228338,2.92644 -0.776682,1.85342 -2.894248,2.83851 -5.105662,2.37514 z m 1.913466,-3.30345 c 0.131557,-0.13156 0.2032,-0.81387 0.2032,-1.93524 0,-1.88456 -0.157194,-2.26423 -0.937469,-2.26423 -0.594471,0 -0.755864,0.47004 -0.755864,2.20134 0,0.85044 0.07888,1.69365 0.175289,1.8738 0.198671,0.37121 0.992862,0.44631 1.314844,0.12433 z m 6.361354,3.12044 c -0.911283,-0.73817 -0.853821,-1.95316 0.119568,-2.52816 0.480861,-0.28405 0.495612,-0.33227 0.495612,-1.61973 0,-1.31553 -0.004,-1.32846 -0.496827,-1.50016 -1.088594,-0.37949 -1.365774,-1.69797 -0.532199,-2.53155 0.272235,-0.27223 0.615135,-0.49497 0.762,-0.49497 0.174067,0 0.267026,-0.15191 0.267026,-0.43636 0,-0.67073 0.85118,-1.42631 1.606769,-1.42631 1.578351,0 1.779903,0.51196 1.779903,4.52126 l 8e-6,3.18341 0.592661,0.47288 c 0.77252,0.6164 0.83267,1.52692 0.146241,2.21336 -0.43162,0.43162 -0.511641,0.4463 -2.413,0.44266 -1.607191,-0.003 -2.032588,-0.0572 -2.327762,-0.29633 z m 8.1928413,0.1172 c -0.16298,-0.0949 -0.415001,-0.40208 -0.560041,-0.68256 -0.350538,-0.67787 -0.0759,-1.55483 0.61477,-1.9628 0.480862,-0.28405 0.49561,-0.33227 0.49561,-1.61973 0,-1.31553 -0.004,-1.32846 -0.496829,-1.50016 -1.0885923,-0.37949 -1.3657693,-1.69797 -0.532191,-2.53155 0.272229,-0.27223 0.615129,-0.49497 0.762,-0.49497 0.174061,0 0.26702,-0.15191 0.26702,-0.43636 0,-0.67073 0.85118,-1.42631 1.606769,-1.42631 1.578351,0 1.779903,0.51196 1.779903,4.52126 l 8e-6,3.18341 0.592661,0.47288 c 0.77252,0.6164 0.83267,1.52692 0.146241,2.21336 -0.431822,0.43181 -0.510792,0.44626 -2.413,0.44128 -1.081622,-0.003 -2.099932,-0.0828 -2.262921,-0.17775 z m 9.948339,0.0658 c -0.58932,-0.12349 -1.66587,-0.96745 -2.19692,-1.72229 -0.505709,-0.71881 -0.513149,-0.76085 -0.568378,-3.21215 -0.0627,-2.78399 0.0511,-3.36762 0.84351,-4.32599 1.916837,-2.3182 5.86653,-1.73795 7.02745,1.0324 0.154908,0.36967 0.228338,1.31074 0.228338,2.92644 0,1.6157 -0.0734,2.55677 -0.228338,2.92644 -0.776682,1.85342 -2.894251,2.83851 -5.105662,2.37515 z m 1.913472,-3.30346 c 0.131548,-0.13155 0.2032,-0.81387 0.2032,-1.93523 0,-1.88457 -0.157202,-2.26423 -0.937472,-2.26423 -0.594468,0 -0.755869,0.47003 -0.755869,2.20133 0,0.85045 0.0789,1.69366 0.175289,1.8738 0.19867,0.37122 0.992862,0.44632 1.314852,0.12433 z m 7.037538,3.17328 c -0.194149,-0.13599 -0.44486,-0.46901 -0.55712,-0.74004 -0.26525,-0.64037 0.119002,-1.63463 0.7413097,-1.91817 0.410152,-0.18688 0.432131,-0.26488 0.432131,-1.53319 0,-1.32585 -0.004,-1.33765 -0.4968187,-1.50949 -1.063392,-0.37069 -1.380652,-1.7802 -0.58075,-2.5801 0.245528,-0.24553 0.588428,-0.44642 0.7619997,-0.44642 0.221059,0 0.315569,-0.1229 0.315569,-0.41034 0,-0.22569 0.197281,-0.64479 0.43839,-0.93133 0.354201,-0.42094 0.567709,-0.521 1.111801,-0.521 1.641718,0 1.836478,0.47949 1.836488,4.52126 v 3.18341 l 0.592662,0.47289 c 0.493699,0.39392 0.592659,0.58227 0.592659,1.12794 0,0.5236 -0.104551,0.74305 -0.520989,1.09345 -0.49263,0.41453 -0.624231,0.43839 -2.417651,0.43839 -1.38887,0 -1.99118,-0.0662 -2.2496807,-0.24726 z M -25.842119,179.22102 c -0.782177,-0.35531 -1.653722,-1.17268 -2.073704,-1.9448 -0.429585,-0.78977 -0.525634,-5.59993 -0.132381,-6.62965 1.061516,-2.77954 4.661045,-3.50272 6.746462,-1.35544 1.029153,1.05968 1.175147,1.68809 1.107138,4.7654 -0.06513,2.94681 -0.153736,3.26726 -1.190056,4.30358 -0.771601,0.7716 -1.740873,1.17031 -2.845035,1.17031 -0.54057,0 -1.217102,-0.12981 -1.612424,-0.3094 z m 2.149425,-3.35007 c 0.263496,-0.23846 0.309665,-0.55225 0.309665,-2.10457 0,-1.98331 -0.148468,-2.35652 -0.937469,-2.35652 -0.605054,0 -0.755864,0.473 -0.755864,2.37067 0,0.94357 0.07888,1.86298 0.175289,2.04313 0.214863,0.40147 0.792052,0.42406 1.208379,0.0473 z m 6.360861,3.23726 c -0.236307,-0.23631 -0.476591,-0.61667 -0.533958,-0.84525 -0.145122,-0.5782 0.306149,-1.56397 0.823965,-1.7999 0.415851,-0.18948 0.432131,-0.25331 0.432131,-1.69372 0,-1.25006 -0.044,-1.49681 -0.267026,-1.49681 -0.146865,0 -0.489765,-0.22274 -0.762,-0.49498 -0.876437,-0.87644 -0.568637,-2.27588 0.598139,-2.71949 0.241424,-0.0918 0.422158,-0.34021 0.488368,-0.67128 0.156419,-0.78209 0.81938,-1.36359 1.55462,-1.36359 1.577239,0 1.774571,0.54546 1.774571,4.90523 0,1.86566 0.0658,3.39211 0.146238,3.39211 0.0804,0 0.34713,0.20089 0.592672,0.44642 0.641559,0.64156 0.620979,1.6064 -0.0486,2.27593 -0.489389,0.48939 -0.516829,0.49498 -2.432248,0.49498 -1.848239,0 -1.957012,-0.0197 -2.36692,-0.42965 z m 8.1280003,0 c -0.236313,-0.23631 -0.476591,-0.61667 -0.533961,-0.84525 -0.145121,-0.5782 0.306149,-1.56397 0.823971,-1.7999 0.415848,-0.18948 0.432128,-0.25331 0.432128,-1.69372 0,-1.33244 -0.0337,-1.49681 -0.306988,-1.49681 -0.168841,0 -0.511741,-0.21372 -0.762,-0.47494 -0.6441023,-0.6723 -0.6279703,-1.57949 0.04,-2.24742 0.272241,-0.27224 0.615141,-0.49498 0.762,-0.49498 0.152001,0 0.267029,-0.14246 0.267029,-0.3307 0,-0.87112 0.85839,-1.7013 1.759121,-1.7013 0.243301,0 0.681901,0.21879 0.98987,0.49378 l 0.553009,0.49378 0.052,3.58384 0.052,3.58384 0.583049,0.51192 c 0.787239,0.69121 0.82196,1.61864 0.0881,2.35253 -0.489392,0.48939 -0.516832,0.49498 -2.432251,0.49498 -1.848239,0 -1.957009,-0.0197 -2.36692,-0.42965 z m 9.777719,0.11281 c -0.782179,-0.35531 -1.65373,-1.17268 -2.073711,-1.9448 -0.42958,-0.78977 -0.525629,-5.59993 -0.132379,-6.62965 1.061519,-2.77954 4.661051,-3.50272 6.746459,-1.35544 1.029161,1.05968 1.17515,1.68809 1.107141,4.7654 -0.0651,2.94681 -0.15373,3.26726 -1.19005,4.30358 -0.77161,0.7716 -1.740879,1.17031 -2.845041,1.17031 -0.54057,0 -1.217099,-0.12981 -1.612419,-0.3094 z m 2.14942,-3.35007 c 0.263501,-0.23846 0.309671,-0.55225 0.309671,-2.10457 0,-1.98331 -0.148471,-2.35652 -0.937472,-2.35652 -0.60506,0 -0.755869,0.473 -0.755869,2.37067 0,0.94357 0.0789,1.86298 0.175289,2.04313 0.21487,0.40147 0.792051,0.42406 1.208381,0.0473 z m 7.038189,3.23726 c -0.236299,-0.23631 -0.476589,-0.61667 -0.53395,-0.84525 -0.145119,-0.5782 0.306152,-1.56397 0.8239597,-1.7999 0.415851,-0.18948 0.432131,-0.25331 0.432131,-1.69372 0,-1.25006 -0.044,-1.49681 -0.267021,-1.49681 -0.14687,0 -0.4897697,-0.22274 -0.7619997,-0.49498 -0.877429,-0.87742 -0.568579,-2.2759 0.6008107,-2.7205 0.261861,-0.0996 0.421979,-0.33885 0.498041,-0.74429 0.305459,-1.62826 2.55646,-1.74346 3.157879,-0.16162 0.0874,0.22996 0.158959,1.93714 0.158959,3.79374 0,1.85661 0.0658,3.37565 0.14624,3.37565 0.0804,0 0.347142,0.20089 0.59267,0.44642 0.641561,0.64156 0.620982,1.6064 -0.0486,2.27593 -0.489389,0.48939 -0.516829,0.49498 -2.432241,0.49498 -1.848238,0 -1.957019,-0.0197 -2.3669297,-0.42965 z"
       id="path329" />
  </g>
</svg>
