<?xml version="1.0" standalone="no"?>
<!DOCTYPE svg PUBLIC "-//W3C//DTD SVG 20010904//EN"
 "http://www.w3.org/TR/2001/REC-SVG-20010904/DTD/svg10.dtd">
<svg version="1.0" xmlns="http://www.w3.org/2000/svg"
 width="81.000000pt" height="71.000000pt" viewBox="0 0 81.000000 71.000000"
 preserveAspectRatio="xMidYMid meet">

<g transform="translate(0.000000,71.000000) scale(0.100000,-0.100000)"
fill="#000000" stroke="none">
<path d="M159 633 c-39 -37 -65 -69 -59 -71 7 -3 41 24 76 59 l65 64 65 -2
c83 -4 101 -13 106 -58 5 -43 -15 -42 -22 1 -4 23 -10 29 -30 29 -20 0 -26 -6
-28 -27 -3 -23 1 -28 25 -34 39 -9 63 -33 63 -62 0 -32 -193 -232 -225 -232
-23 0 -165 137 -165 159 0 8 7 23 17 33 9 10 13 21 10 25 -11 11 -47 -29 -47
-51 0 -28 158 -186 185 -186 23 0 229 201 242 236 7 18 11 19 36 9 l27 -11
-41 -55 c-35 -46 -40 -59 -36 -91 4 -29 0 -41 -19 -59 -13 -12 -24 -27 -24
-32 0 -14 -65 -92 -112 -134 -7 -7 -18 -18 -24 -25 -6 -7 -21 -21 -33 -31 -16
-13 -21 -27 -19 -50 3 -30 5 -32 38 -29 20 1 39 10 45 19 6 9 18 24 29 34 10
9 23 22 28 27 32 32 47 45 79 72 20 17 41 30 46 30 5 0 22 13 38 30 23 24 32
27 47 19 25 -13 73 3 112 37 42 37 23 41 -26 5 -23 -17 -50 -31 -61 -31 -29 0
-127 98 -127 128 0 14 18 48 41 78 38 50 42 52 77 47 26 -4 53 -21 90 -55 53
-50 84 -58 90 -24 3 12 -15 38 -49 72 -54 54 -85 67 -95 39 -6 -16 -54 -21
-54 -6 0 19 59 71 80 71 27 0 158 -124 167 -158 4 -18 -2 -32 -28 -58 -38 -39
-35 -54 5 -23 64 50 52 102 -41 191 -43 41 -71 59 -99 64 -21 4 -48 13 -59 20
-37 24 -180 58 -258 62 l-77 4 -71 -69z m380 -4 l44 -19 -29 -33 c-16 -17 -32
-36 -35 -40 -4 -5 -25 1 -48 12 -39 20 -41 24 -41 67 l0 46 33 -7 c17 -4 52
-16 76 -26z m-172 -15 c-9 -9 -28 6 -21 18 4 6 10 6 17 -1 6 -6 8 -13 4 -17z
m315 -131 c35 -34 49 -63 30 -63 -14 0 -93 86 -86 93 12 11 16 9 56 -30z
m-193 -239 c-7 -9 -30 -27 -50 -40 -20 -13 -74 -59 -119 -103 -45 -45 -88 -81
-96 -81 -30 0 -12 43 39 90 60 57 57 54 97 101 16 20 30 40 30 45 0 4 12 21
27 36 l27 28 30 -29 c26 -26 28 -32 15 -47z"/>
<path d="M212 607 c-12 -13 -22 -32 -22 -43 0 -23 98 -124 121 -124 22 0 69
52 69 77 0 28 -92 113 -123 113 -13 0 -33 -10 -45 -23z m106 -40 c23 -23 42
-47 42 -53 0 -6 -11 -21 -25 -34 l-25 -24 -50 49 c-28 27 -50 54 -50 59 0 16
32 46 49 46 9 0 36 -19 59 -43z"/>
<path d="M102 507 c-12 -13 -22 -32 -22 -43 0 -23 98 -124 121 -124 22 0 69
52 69 77 0 28 -92 113 -123 113 -13 0 -33 -10 -45 -23z m106 -40 c23 -23 42
-47 42 -53 0 -6 -11 -21 -25 -34 l-25 -24 -50 49 c-28 27 -50 54 -50 59 0 16
32 46 49 46 9 0 36 -19 59 -43z"/>
</g>
</svg>
